id,name,model_id:id,group_id:id,perm_read,perm_write,perm_create,perm_unlink
access_books,books,model_books,,1,1,1,1
access_student_Info,student_Info,model_student_Info,,1,1,1,1
access_request_Info,request_Info,model_request_Info,,1,1,1,1